ISO2,Country name
AL,Albania
AT,Austria
BA,Bosnia and Herzegovina
BE,Belgium
BG,Bulgaria
CH,Switzerland
CY,Cyprus
DE,Germany
DK,Denmark
EE,Estonia
ES,Spain
FI,Finland
FR,France
GR,Greece
HR,Croatia
HU,Hungary
IE,Ireland
IS,Iceland
IT,Italy
LT,Lithuania
LV,Latvia
MK,The former Yugoslav Republic of Macedonia
MT,Malta
NL,Netherlands
NO,Norway
PL,Poland
PT,Portugal
RO,Romania
RS,Serbia
SE,Sweden
SI,Slovenia
