level_of_human_development,year,heatwaves_days
Low,1980,-14290650.4458894
Low,1981,-19910113.364508547
Low,1982,-21936560.693714075
Low,1983,20083217.153052773
Low,1984,-19719421.880708873
Low,1985,-15767128.556515455
Low,1986,-20123858.22660992
Low,1987,-2613271.5391772054
Low,1988,4114298.4471700215
Low,1989,-30150171.57097362
Low,1990,-8471300.765890505
Low,1991,-24312811.585702214
Low,1992,-12283483.250093492
Low,1993,-23957279.22807983
Low,1994,-4537845.847506738
Low,1995,-11983177.666127197
Low,1996,-20695579.11805184
Low,1997,3802811.40181126
Low,1998,134608364.89398864
Low,1999,-15792283.569709739
Low,2000,-14711963.024595637
Low,2001,-8139166.367386846
Low,2002,7000480.305608098
Low,2003,12437087.607913509
Low,2004,5335584.697692707
Low,2005,74618041.88181193
Low,2006,35096590.22577402
Low,2007,17575695.822431453
Low,2008,-9182227.387148427
Low,2009,23853790.70787096
Low,2010,188878610.64522415
Low,2011,33985029.9108946
Low,2012,22382221.002549503
Low,2013,52221416.484715976
Low,2014,2774400.0016318364
Low,2015,109602229.14406851
Low,2016,317455921.77640134
Low,2017,143247324.2475257
Low,2018,67154187.65530299
Low,2019,199132619.2572736
Low,2020,230624203.92852232
Medium,1980,-31572074.114516128
Medium,1981,-94439426.66572504
Medium,1982,-92480591.97088061
Medium,1983,6329895.411389893
Medium,1984,-4514953.796680534
Medium,1985,-58637838.16320981
Medium,1986,-39095678.11511936
Medium,1987,71961513.04692946
Medium,1988,30268731.5539915
Medium,1989,-89881296.72907521
Medium,1990,-95026539.30694854
Medium,1991,-51819323.59115165
Medium,1992,-72241713.43506837
Medium,1993,-18470847.565417137
Medium,1994,30509624.27739157
Medium,1995,151509418.9238637
Medium,1996,-54992705.59858324
Medium,1997,-98566311.76627788
Medium,1998,248050175.23711687
Medium,1999,-67385845.60189699
Medium,2000,-85704497.31796472
Medium,2001,-86128145.00146322
Medium,2002,-25173441.001707535
Medium,2003,90385096.06115939
Medium,2004,-7948008.932936914
Medium,2005,189193727.9697865
Medium,2006,-72926106.7809244
Medium,2007,-457384.4184505651
Medium,2008,-125320348.0626557
Medium,2009,16754548.666725202
Medium,2010,316763364.16404974
Medium,2011,-85740187.0003977
Medium,2012,226849112.05999446
Medium,2013,53779672.23043792
Medium,2014,111301162.48133402
Medium,2015,140806404.7709646
Medium,2016,313023565.3016045
Medium,2017,154754729.089529
Medium,2018,85058157.61146696
Medium,2019,363278086.1438943
Medium,2020,105315011.9726282
High,1980,-90238449.33104491
High,1981,-28053247.30787238
High,1982,-114974216.83708021
High,1983,-11237703.850918123
High,1984,-108481133.41552553
High,1985,-133115803.0926342
High,1986,-125091678.20582539
High,1987,-104042660.59009284
High,1988,31074661.935769245
High,1989,-84602328.40884946
High,1990,-51549315.62205783
High,1991,-47124141.85429319
High,1992,-28001722.8264814
High,1993,-110454006.4981805
High,1994,60089140.535788886
High,1995,6585879.480292945
High,1996,-90102263.75095986
High,1997,17981749.360602003
High,1998,268362092.83321625
High,1999,-17658865.91853232
High,2000,-29129372.43676387
High,2001,14978099.768356156
High,2002,63881801.12292408
High,2003,88379542.18440115
High,2004,-18564498.825584255
High,2005,71660887.89755441
High,2006,84752094.33371896
High,2007,34607474.02253963
High,2008,-39988824.368999824
High,2009,54288791.58238098
High,2010,282650449.0659176
High,2011,50493725.805796
High,2012,90912039.91416816
High,2013,192258580.09201837
High,2014,102379876.51043437
High,2015,242840286.37164444
High,2016,340463061.9803903
High,2017,277815067.1751517
High,2018,244744507.98638618
High,2019,304878700.3565583
High,2020,195764420.7112548
Very High,1980,-38474463.44034348
Very High,1981,-28633073.535968065
Very High,1982,-43392404.87532577
Very High,1983,4294708.4004645115
Very High,1984,-45780294.65562687
Very High,1985,-49243918.188604556
Very High,1986,-46592677.22560905
Very High,1987,-17675855.811026853
Very High,1988,5953725.147689667
Very High,1989,-26233874.896615066
Very High,1990,-19243867.401761513
Very High,1991,-16508992.806547476
Very High,1992,-35235762.72203793
Very High,1993,-49280603.23222445
Very High,1994,47142930.79030052
Very High,1995,30467272.817545734
Very High,1996,-25770560.796526078
Very High,1997,-22158385.456378482
Very High,1998,46478497.59731477
Very High,1999,22563304.363865137
Very High,2000,-2660340.0753742564
Very High,2001,40962729.603752345
Very High,2002,30338225.714359246
Very High,2003,32048682.2299203
Very High,2004,-24801460.182358284
Very High,2005,17769454.231998976
Very High,2006,96125894.17119835
Very High,2007,39399872.36877731
Very High,2008,12562775.069263287
Very High,2009,-16173768.71380602
Very High,2010,159817629.2029381
Very High,2011,58957319.22291365
Very High,2012,113720516.02692969
Very High,2013,52343421.530209355
Very High,2014,14622264.922667935
Very High,2015,95264478.30735335
Very High,2016,98817167.84632567
Very High,2017,75904028.93899421
Very High,2018,115754695.51141427
Very High,2019,76360826.18607154
Very High,2020,85335801.103311
