HDI Region,year,Exposure weighted change K
High,2000,0.2220590311737398
High,2001,0.23044563895792852
High,2002,0.21907640210943116
High,2003,0.18733208578492264
High,2004,-0.06986458110276554
High,2005,0.38426134395241635
High,2006,0.601164501695464
High,2007,0.43497924839053875
High,2008,0.03835384291108041
High,2009,0.3882949928696087
High,2010,0.6037425363893721
High,2011,0.4097083698744188
High,2012,0.492159142385278
High,2013,0.6905826429398301
High,2014,0.26673890662579336
High,2015,0.40151251470607197
High,2016,0.8129459055838166
High,2017,0.7415043085852405
High,2018,0.8422863520031217
High,2019,0.8020527724794992
High,2020,0.6038381825926855
High,2021,0.6159721098329016
Low,2000,-0.1172021948832074
Low,2001,-0.08225318781204777
Low,2002,0.33994541903508213
Low,2003,0.07028005611473856
Low,2004,0.12056400758380795
Low,2005,0.32474244960265003
Low,2006,0.4930242806174829
Low,2007,0.1171205191316968
Low,2008,0.2060330783657568
Low,2009,0.6015877087127337
Low,2010,0.5576237757309678
Low,2011,0.4606101576537313
Low,2012,0.1849761606305013
Low,2013,0.3449167905060219
Low,2014,0.5797335207126644
Low,2015,0.8556596631430742
Low,2016,0.6880098958477668
Low,2017,0.7311053043677654
Low,2018,0.4212098946027482
Low,2019,0.5526343123723171
Low,2020,0.5929749972043943
Low,2021,0.807537192853737
Medium,2000,-0.2632593415571506
Medium,2001,-0.3515977567564548
Medium,2002,0.3441457599756507
Medium,2003,0.19198597301005318
Medium,2004,-0.05978026787235909
Medium,2005,0.5071061419577557
Medium,2006,0.08135535410928862
Medium,2007,0.1540885561004487
Medium,2008,-0.3586180730845367
Medium,2009,0.7003342954274591
Medium,2010,0.4585550561548904
Medium,2011,-0.019264849565923486
Medium,2012,0.6171177791802891
Medium,2013,-0.17032552227549347
Medium,2014,0.7941918324304512
Medium,2015,0.4632924075934498
Medium,2016,0.5135563663539146
Medium,2017,0.42087557048316376
Medium,2018,0.46485783304371314
Medium,2019,0.9429281381095731
Medium,2020,0.39867609062357806
Medium,2021,0.3516575885003779
Very High,2000,0.027998301571427145
Very High,2001,0.32925862953027635
Very High,2002,0.34724198532139905
Very High,2003,0.6088704412004465
Very High,2004,-0.044239705542412175
Very High,2005,0.3565240954036638
Very High,2006,0.6859844997657814
Very High,2007,0.4285088695928533
Very High,2008,0.3075096779472684
Very High,2009,0.11960445587697319
Very High,2010,1.1378427626735874
Very High,2011,0.49389041100142933
Very High,2012,0.8212987689402824
Very High,2013,0.6253003362693189
Very High,2014,0.2155935005527052
Very High,2015,0.7031656558925641
Very High,2016,0.9945084470066529
Very High,2017,0.7710931143746876
Very High,2018,1.2809255048166341
Very High,2019,0.9425182668555199
Very High,2020,0.8786695154005654
Very High,2021,1.0407159950353757
